Name:Stevenson Morris,ID:1,Start_Date:12-12-2030,Dept:Software
Name:John Smith,ID:2,Start_Date:12-08-2030,Dept:Accounting
Name:Mary Smith,ID:3,Start_Date:12-08-2030,Dept:IT
Name:Tom Robinson,ID:4,Start_Date:12-09-2010,Dept:Accounting
Name:Adam Mathew,ID:5,Start_Date:2-09-2020,Dept:HR
Name:Andrea Willson,ID:6,Start_Date:4-10-2013,Dept:IT
